Beer Recommendation System
…
Lets find all distinct beers & total reviews they received

beer_reviews_count <- beer %>% group_by(beer_beerid) %>% summarise(total_beer_reviews=n())
dim(beer_reviews_count)

## [1] 40304     2

Total 40308 distinct beers.

Lets sort these beers by reviews

 beer_reviews_count[with(beer_reviews_count, order(total_beer_reviews,decreasing = TRUE)), ]

## # A tibble: 40,304 x 2
##    beer_beerid total_beer_reviews
##          <int>              <int>
##  1        2093                977
##  2         412                966
##  3        1904                902
##  4        1093                840
##  5          92                812
##  6        4083                798
##  7         276                788
##  8        7971                778
##  9          88                755
## 10        1013                750
## # ... with 40,294 more rows
…
beer_reviews_count %>% subset(total_beer_reviews==1) %>% dim()

## [1] 18080     2

#So 18080 or 44.7% beers have only 1 review, lets group by total
reviews & find count for each.

Lets create separate dataframe with frequency of count of reviews

review_frequency<-beer_reviews_count %>% group_by(total_beer_reviews) %>% summarise(review_occurance=n())

head(review_frequency,25)

## # A tibble: 25 x 2
##    total_beer_reviews review_occurance
##                 <int>            <int>
##  1                  1            18080
##  2                  2             6183
##  3                  3             3079
##  4                  4             1895
##  5                  5             1350
##  6                  6              959
##  7                  7              785
##  8                  8              556
##  9                  9              478
## 10                 10              401
## # ... with 15 more rows
…
