Understanding tf-idf with tidytext
…
Alice’s Adventures in Wonderland contains 12 Chapters, I will treat each
chapter as a document and find tf-idf across each chapter of novel. Lets
drive 3 new features story, line & word from raw_text.

alice <- raw_text %>%
    mutate(story = ifelse(str_detect(text, "CHAPTER"), text, NA)) %>%
    fill(story) %>%
    mutate(story = factor(story, levels = unique(story))) %>%
    mutate(line = row_number()) %>%
    unnest_tokens(word, text)

alice

## # A tibble: 27,586 x 4
##    gutenberg_id  story  line               word
##           <int> <fctr> <int>              <chr>
##  1        28885     NA     1            alice's
##  2        28885     NA     1         adventures
##  3        28885     NA     1                 in
##  4        28885     NA     1         wonderland
##  5        28885     NA     3       illustration
##  6        28885     NA     3              alice
##  7        28885     NA     5       illustration
##  8        28885     NA     7 alice's.adventures
##  9        28885     NA     8      in.wonderland
## 10        28885     NA     9   by.lewis.carroll
## # ... with 27,576 more rows

Lets find most frequent word in novel by sorting words by their
frequency

alice %>%
  count(word, sort = TRUE)

## # A tibble: 2,919 x 2
##     word     n
##    <chr> <int>
##  1   the  1676
##  2   and   899
##  3    to   757
##  4     a   649
##  5   she   543
##  6    it   539
##  7    of   523
##  8  said   466
##  9 alice   391
## 10     i   391
## # ... with 2,909 more rows

As most stop words like the, to, a etc. are most frequent in most text
corpus we need to remove these to get more relevant words.

Removing stop words

tidy_alice <- alice %>%
    anti_join(stop_words)

## Joining, by = "word"

tidy_alice

## # A tibble: 8,319 x 4
##    gutenberg_id       story  line        word
##           <int>      <fctr> <int>       <chr>
##  1        28885 CHAPTER XII  3635  apostrophe
##  2        28885 CHAPTER XII  3635         153
##  3        28885 CHAPTER XII  3633 parenthesis
##  4        28885 CHAPTER XII  3631         hog
##  5        28885 CHAPTER XII  3631         104
##  6        28885 CHAPTER XII  3629         103
##  7        28885 CHAPTER XII  3627          91
##  8        28885 CHAPTER XII  3624      single
##  9        28885 CHAPTER XII  3624          69
## 10        28885 CHAPTER XII  3622   quotation
## # ... with 8,309 more rows

Words sorted by frequency, here alice is most frequent word followed by
queen & time.

tidy_alice %>%
  count(word, sort = TRUE)

## # A tibble: 2,448 x 2
##       word     n
##      <chr> <int>
##  1   alice   391
##  2   queen    73
##  3    time    73
##  4    king    61
##  5    mock    59
##  6  turtle    58
##  7 gryphon    55
##  8  hatter    55
##  9    head    53
## 10  rabbit    49
## # ... with 2,438 more rows
…
